{
    "InspectId": "",
    "Tasks": [
        {
            "Id": "",
            "TLoc": "6.13886547088623;-0.01;5.59115362167358;6.13886547088623;-0.01;5.59115362167358;6.13886547088623;-0.01;5.59115362167358",
            "TLocWidth": 5,
            "TLocType": "start",
            "IsAnterograde": false
        },
        {
            "Id": "96",
            "CameraPose": "181:1/-8.758,11.688,90.54,100,100,1,7,down,216,312,0,6,0,0;181:1/-8.758,11.688,90.54,100,100,1,7,down,216,312,0,6,0,0",
            "TLoc": "5.0867161860819;0.01;12.5764261390254;5.0867161860819;0.01;12.5764261390254;5.0867161860819;0.01;12.5764261390254",
            "TLocWidth": 5,
            "TLocType": "transfer",
            "IsAnterograde": false
        },
        {
            "Id": "98",
            "CameraPose": "182:1/-27.282,12.931,92.007,100,100,1,7,down,224,319,0,0,0,0",
            "TLoc": "4.32552149935828;0.01;17.5501720033772;4.32552149935828;0.01;17.5501720033772;4.32552149935828;0.01;17.5501720033772",
            "TLocWidth": 5,
            "TLocType": "transfer",
            "IsAnterograde": false
        },
        {
            "Id": "5",
            "Align": "middle",
            "TLoc": "2.628;88.671;28.642;2.628;88.671;28.642;2.628;88.671;28.642",
            "TLocWidth": 5,
            "TLocType": "turn",
            "TurnAngle": "-87.030138427391",
            "IsAnterograde": false
        },
        {
            "Id": "70",
            "CameraPose": "170:1/-11.226,20.901,91.903,100,100,1,7,down,218,317,0,0.6,0,0",
            "TLoc": "-12.4695452044271;0.01;26.3395602609308;-12.4695452044271;0.01;26.3395602609308;-12.4695452044271;0.01;26.3395602609308",
            "TLocWidth": 5,
            "TLocType": "transfer",
            "IsAnterograde": false
        },
        {
            "Id": "64",
            "CameraPose": "167:1/-28.309,18.313,91.95,100,100,1,7,down,220,313,0,0.6,0,0",
            "TLoc": "-29.6032118781335;0.01;23.7266033536093;-29.6032118781335;0.01;23.7266033536093;-29.6032118781335;0.01;23.7266033536093",
            "TLocWidth": 5,
            "TLocType": "transfer",
            "IsAnterograde": false
        },
        {
            "Id": "4",
            "Align": "middle",
            "TLoc": "-42.715;89.2;21.727;-42.715;89.2;21.727;-42.715;89.2;21.727",
            "TLocWidth": 4,
            "TLocType": "turn",
            "TurnAngle": "-82.8054703060528",
            "IsAnterograde": false
        },
        {
            "Id": "106",
            "CameraPose": "188:1/-29.334,14.107,92.292,100,100,1,7,down,215,312,0,6,0,0",
            "TLoc": "-40.4602404057212;0.01;11.8549450917654;-40.4602404057212;0.01;11.8549450917654;-40.4602404057212;0.01;11.8549450917654",
            "TLocWidth": 4,
            "TLocType": "transfer",
            "IsAnterograde": false
        },
        {
            "Id": "102",
            "CameraPose": "184:1/-25.492,9.015,92.274,100,100,1,7,down,219,312,0,0.6,0,0",
            "TLoc": "-39.1164889167075;0.01;5.97157352690988;-39.1164889167075;0.01;5.97157352690988;-39.1164889167075;0.01;5.97157352690988",
            "TLocWidth": 4,
            "TLocType": "transfer",
            "IsAnterograde": false
        },
        {
            "Id": "100",
            "CameraPose": "183:1/-25.716,10.491,92.175,100,100,1,7,down,222,316,0,0.6,0,0",
            "TLoc": "-38.8924827667825;0.01;4.99080332974404;-38.8924827667825;0.01;4.99080332974404;-38.8924827667825;0.01;4.99080332974404",
            "TLocWidth": 4,
            "TLocType": "transfer",
            "IsAnterograde": false
        },
        {
            "Id": "6",
            "Align": "middle",
            "TLoc": "-37.328;89.259;-1.859;-37.328;89.259;-1.859;-37.328;89.259;-1.859",
            "TLocWidth": 3,
            "TLocType": "turn",
            "TurnAngle": "-90.4246564960922",
            "IsAnterograde": false
        },
        {
            "Id": "48",
            "CameraPose": "74:1/-26.817,1.762,90.81,100,100,1,1,down,140,40,0,3,0,5.4",
            "TLoc": "-26.4299259839113;0.01;-0.241760084014985;-26.4299259839113;0.01;-0.241760084014985;-26.4299259839113;0.01;-0.241760084014985",
            "TLocWidth": 3,
            "TLocType": "transfer",
            "IsAnterograde": false
        },
        {
            "Id": "50",
            "CameraPose": "75:1/-23.611,2.242,90.773,100,100,1,1,down,130,27.3,0,3,0,4.8",
            "TLoc": "-23.4547053746387;0.01;0.199753299090468;-23.4547053746387;0.01;0.199753299090468;-23.4547053746387;0.01;0.199753299090468",
            "TLocWidth": 3,
            "TLocType": "transfer",
            "IsAnterograde": false
        },
        {
            "Id": "94",
            "CameraPose": "180:1/-24.236,6.54,91.987,100,100,1,7,down,219,313,0,0.6,0,0",
            "TLoc": "-22.4625906208125;0.01;0.346980008943675;-22.4625906208125;0.01;0.346980008943675;-22.4625906208125;0.01;0.346980008943675",
            "TLocWidth": 3,
            "TLocType": "transfer",
            "IsAnterograde": false
        },
        {
            "Id": "52",
            "CameraPose": "76:1/-20.363,2.766,90.785,100,100,1,1,down,140,45,0,3,0,0",
            "TLoc": "-19.48751521087;0.01;0.7884718449251;-19.48751521087;0.01;0.7884718449251;-19.48751521087;0.01;0.7884718449251",
            "TLocWidth": 3,
            "TLocType": "transfer",
            "IsAnterograde": false
        },
        {
            "Id": "92",
            "CameraPose": "179:1/-18.343,7.674,91.96,100,100,1,7,down,218,316,0,0.6,0,0",
            "TLoc": "-17.5034309025476;0.01;1.08290371750748;-17.5034309025476;0.01;1.08290371750748;-17.5034309025476;0.01;1.08290371750748",
            "TLocWidth": 3,
            "TLocType": "transfer",
            "IsAnterograde": false
        },
        {
            "Id": "42",
            "CameraPose": "70:1/-14.897,3.463,90.847,100,100,1,7,down,222,318,0,6,0,0",
            "TLoc": "-14.528210293275;0.01;1.52441710061294;-14.528210293275;0.01;1.52441710061294;-14.528210293275;0.01;1.52441710061294",
            "TLocWidth": 3,
            "TLocType": "transfer",
            "IsAnterograde": false
        },
        {
            "Id": "44",
            "CameraPose": "72:1/-11.685,3.948,90.814,100,100,1,7,down,222,318,0,0.6,0,4.5",
            "TLoc": "-11.5520112311264;0.01;1.96607568304853;-11.5520112311264;0.01;1.96607568304853;-11.5520112311264;0.01;1.96607568304853",
            "TLocWidth": 3,
            "TLocType": "transfer",
            "IsAnterograde": false
        },
        {
            "Id": "90",
            "CameraPose": "178:1/-12.357,8.343,91.957,100,100,1,7,down,216,312,0,6,0,0",
            "TLoc": "-10.5610201295063;0.01;2.11313564644757;-10.5610201295063;0.01;2.11313564644757;-10.5610201295063;0.01;2.11313564644757",
            "TLocWidth": 3,
            "TLocType": "transfer",
            "IsAnterograde": false
        },
        {
            "Id": "46",
            "CameraPose": "73:1/-8.494,4.408,90.815,100,100,1,7,down,222,318,0,0.6,0,0",
            "TLoc": "-8.57693582118394;0.01;2.40756751902995;-8.57693582118394;0.01;2.40756751902995;-8.57693582118394;0.01;2.40756751902995",
            "TLocWidth": 3,
            "TLocType": "transfer",
            "IsAnterograde": false
        },
        {
            "Id": "7",
            "Align": "middle",
            "TLoc": "6.305;88.614;4.616;6.305;88.614;4.616;6.305;88.614;4.616",
            "TLocWidth": 5,
            "TLocType": "turn",
            "TurnAngle": "-86.739734770464",
            "IsAnterograde": true
        },
        {
            "Id": "1",
            "Align": "middle",
            "TLoc": "-4.108;88.645;73.258;-4.108;88.645;73.258;-4.108;88.645;73.258",
            "TLocWidth": 5,
            "TLocType": "turn",
            "TurnAngle": "-86.7515785592007",
            "IsAnterograde": true
        },
        {
            "Id": "82",
            "CameraPose": "18:1/-10.857,68.219,91.445,200,200,1,1,down,225,310,-0.1,0.9,0,0",
            "TLoc": "-11.0400944291571;0.01;72.194099539545;-11.0400944291571;0.01;72.194099539545;-11.0400944291571;0.01;72.194099539545",
            "TLocWidth": 3,
            "TLocType": "transfer",
            "IsAnterograde": false
        },
	{
            "Id": "74",
            "CameraPose": "54:1/-12.081,68.567,91.443,200,200,2",
            "TLoc": "-13.0262742754396;0.01;71.8892713704251;-13.0262742754396;0.01;71.8892713704251;-13.0262742754396;0.01;71.8892713704251",
            "TLocWidth": 3,
            "TLocType": "transfer",
            "IsAnterograde": false
        },
        {
            "Id": "84",
            "CameraPose": "153:1/-18.774,67.006,91.43,200,200,1,1,down,226,311,-0.1,1,0,0",
            "TLoc": "-18.9853409735212;0.01;70.9747059575097;-18.9853409735212;0.01;70.9747059575097;-18.9853409735212;0.01;70.9747059575097",
            "TLocWidth": 3,
            "TLocType": "transfer",
            "IsAnterograde": false
        },
        {
            "Id": "76",
            "CameraPose": "154:1/-19.994,67.353,91.458,200,200,2",
            "TLoc": "-20.9713708770183;0.01;70.6699008007996;-20.9713708770183;0.01;70.6699008007996;-20.9713708770183;0.01;70.6699008007996",
            "TLocWidth": 3,
            "TLocType": "transfer",
            "IsAnterograde": false
        },
        {
            "Id": "86",
            "CameraPose": "155:1/-26.681,65.812,91.432,200,200,1,1,down,223,312,-0.1,0.8,0,0",
            "TLoc": "-26.9305875178852;0.01;69.7553123754743;-26.9305875178852;0.01;69.7553123754743;-26.9305875178852;0.01;69.7553123754743",
            "TLocWidth": 3,
            "TLocType": "transfer",
            "IsAnterograde": false
        },
        {
            "Id": "78",
            "CameraPose": "156:1/-27.901,66.167,91.45,200,200,2",
            "TLoc": "-28.9175944089724;0.01;69.4503572759789;-28.9175944089724;0.01;69.4503572759789;-28.9175944089724;0.01;69.4503572759789",
            "TLocWidth": 3,
            "TLocType": "transfer",
            "IsAnterograde": false
        },
        {
            "Id": "88",
            "CameraPose": "157:1/-34.577,64.613,91.442,200,200,1,1,down,220,310,-0.1,1,0,0",
            "TLoc": "-34.8758340622492;0.01;68.535918793439;-34.8758340622492;0.01;68.535918793439;-34.8758340622492;0.01;68.535918793439",
            "TLocWidth": 3,
            "TLocType": "transfer",
            "IsAnterograde": false
        },
        {
            "Id": "80",
            "CameraPose": "158:1/-35.794,64.96,91.468,200,200,2",
            "TLoc": "-35.8699009729805;0.01;68.3833547660936;-35.8699009729805;0.01;68.3833547660936;-35.8699009729805;0.01;68.3833547660936",
            "TLocWidth": 3,
            "TLocType": "transfer",
            "IsAnterograde": false
        },
        {
            "Id": "22",
            "CameraPose": "13:1/-41.043,63.827,91.093,200,200,1,2,down,140,44,0,3,0,0",
            "TLoc": "-41.8279906834719;0.01;67.4689392959636;-41.8279906834719;0.01;67.4689392959636;-41.8279906834719;0.01;67.4689392959636",
            "TLocWidth": 3,
            "TLocType": "transfer",
            "IsAnterograde": false
        },
        {
            "Id": "20",
            "CameraPose": "36:1/-43.026,63.523,91.102,200,200,1,2,down,138,43,0,3,0,7.6",
            "TLoc": "-43.8149975745592;0.01;67.1639841964682;-43.8149975745592;0.01;67.1639841964682;-43.8149975745592;0.01;67.1639841964682",
            "TLocWidth": 3,
            "TLocType": "transfer",
            "IsAnterograde": false
        },
        {
            "Id": "18",
            "CameraPose": "37:1/-45.005,63.227,91.103,200,200,1,2,down,136,44,0,3,0,7.2",
            "TLoc": "-45.8011774208417;0.01;66.8591560273483;-45.8011774208417;0.01;66.8591560273483;-45.8011774208417;0.01;66.8591560273483",
            "TLocWidth": 3,
            "TLocType": "transfer",
            "IsAnterograde": false
        },
        {
            "Id": "0",
            "Align": "middle",
            "TLoc": "-52.761;89.085;65.791;-52.761;89.085;65.791;-52.761;89.085;65.791",
            "TLocWidth": 3,
            "TLocType": "turn",
            "TurnAngle": "-82.9324084850031",
            "IsAnterograde": true
        },
        {
            "Id": "2",
            "Align": "middle",
            "TLoc": "-47.192;89.165;41.265;-47.192;89.165;41.265;-47.192;89.165;41.265",
            "TLocWidth": 4,
            "TLocType": "turn",
            "TurnAngle": "-90.9022060445679",
            "IsAnterograde": false
        },
        {
            "Id": "24",
            "CameraPose": "64:1/-42.564,47.302,91.116,200,200,1,2,down,140,44,0,3,0,12.9",
            "TLoc": "-42.1845468690808;0.01;42.0483180713544;-42.1845468690808;0.01;42.0483180713544;-42.1845468690808;0.01;42.0483180713544",
            "TLocWidth": 4,
            "TLocType": "transfer",
            "IsAnterograde": false
        },
        {
            "Id": "26",
            "CameraPose": "65:1/-40.606,47.599,91.116,200,200,1,2,down,140,43,0,3,0,8",
            "TLoc": "-40.1936160388286;0.01;42.3597602471231;-40.1936160388286;0.01;42.3597602471231;-40.1936160388286;0.01;42.3597602471231",
            "TLocWidth": 4,
            "TLocType": "transfer",
            "IsAnterograde": false
        },
        {
            "Id": "28",
            "CameraPose": "66:1/-38.613,47.893,91.111,200,200,1,2,down,138,43.5,0,3,0,8.7",
            "TLoc": "-38.2025325146357;0.01;42.6712263088713;-38.2025325146357;0.01;42.6712263088713;-38.2025325146357;0.01;42.6712263088713",
            "TLocWidth": 4,
            "TLocType": "transfer",
            "IsAnterograde": false
        },
        {
            "Id": "30",
            "CameraPose": "67:1/-34.663,48.492,91.108,200,200,1,2,down,136,43.5,0,3,0,4",
            "TLoc": "-34.2203654662497;0.01;43.2941584323678;-34.2203654662497;0.01;43.2941584323678;-34.2203654662497;0.01;43.2941584323678",
            "TLocWidth": 4,
            "TLocType": "transfer",
            "IsAnterograde": false
        },
        {
            "Id": "32",
            "CameraPose": "68:1/-32.69,48.788,91.09,200,200,1,2,down,136,41.5,0,3,0,8.6",
            "TLoc": "-32.2283058280364;0.01;43.6057771880568;-32.2283058280364;0.01;43.6057771880568;-32.2283058280364;0.01;43.6057771880568",
            "TLocWidth": 4,
            "TLocType": "transfer",
            "IsAnterograde": false
        },
        {
            "Id": "34",
            "CameraPose": "69:1/-30.724,49.093,91.108,200,200,1,2,down,137,43,0,3,0,0",
            "TLoc": "-30.2372223038434;0.01;43.9172432498051;-30.2372223038434;0.01;43.9172432498051;-30.2372223038434;0.01;43.9172432498051",
            "TLocWidth": 4,
            "TLocType": "transfer",
            "IsAnterograde": false
        },
        {
            "Id": "36",
            "CameraPose": "45:1/-18.859,50.9,91.107,200,200,1,2,down,137,44,0,3,0,5.2",
            "TLoc": "-18.2898977386059;0.01;45.7861684282558;-18.2898977386059;0.01;45.7861684282558;-18.2898977386059;0.01;45.7861684282558",
            "TLocWidth": 4,
            "TLocType": "transfer",
            "IsAnterograde": false
        },
        {
            "Id": "38",
            "CameraPose": "46:1/-16.89,51.199,91.101,200,200,1,2,down,137,41.5,0,3,0,6.5",
            "TLoc": "-16.2989669083538;0.01;46.0976106040245;-16.2989669083538;0.01;46.0976106040245;-16.2989669083538;0.01;46.0976106040245",
            "TLocWidth": 4,
            "TLocType": "transfer",
            "IsAnterograde": false
        },
        {
            "Id": "40",
            "CameraPose": "47:1/-14.903,51.504,91.095,200,200,1,2,down,136.5,45,0,3,0,5",
            "TLoc": "-14.3078833841608;0.01;46.4090766657727;-14.3078833841608;0.01;46.4090766657727;-14.3078833841608;0.01;46.4090766657727",
            "TLocWidth": 4,
            "TLocType": "transfer",
            "IsAnterograde": false
        },
        {
            "Id": "3",
            "Align": "middle",
            "TLoc": "-0.43;88.692;48.58;-0.43;88.692;48.58;-0.43;88.692;48.58",
            "TLocWidth": 4,
            "TLocType": "turn",
            "TurnAngle": "86.8290647521461",
            "IsAnterograde": false
        },
        {
            "TLoc": "6.13886547088623;-0.01;5.59115362167358;6.13886547088623;-0.01;5.59115362167358;6.13886547088623;-0.01;5.59115362167358",
            "TLocWidth": 5,
            "TLocType": "end",
            "IsAnterograde": false
        }
    ]
}
