<robot name="yd_robot">
  <material name="orange">
    <color rgba="1.0 0.5 0.2 1" />
  </material>
  <material name="gray">
    <color rgba="0.2 0.2 0.2 1" />
  </material>

  <link name="imu_link">
    <visual>
      <origin xyz="0.0 0.0 0.0" />
      <geometry>
        <box size="0.06 0.04 0.02" />
      </geometry>
      <material name="orange" />
    </visual>
  </link>

  <link name="velodyne_h">
    <visual>
      <origin xyz="0.0 0.0 0.0" />
      <geometry>
        <cylinder length="0.07" radius="0.05" />
      </geometry>
      <material name="gray" />
    </visual>
  </link>

  <link name="velodyne_v">
    <visual>
      <origin xyz="0.0 0.0 0.0" />
      <geometry>
        <cylinder length="0.07" radius="0.05" />
      </geometry>
      <material name="gray" />
    </visual>
  </link>
  
  <link name="base_link" />

  <joint name="imu_link_joint" type="fixed">
    <parent link="base_link" />
    <child link="imu_link" />
    <origin xyz="0.0 0.0 0.0" rpy="3.14159 0.0 1.57" />
  </joint>

  <joint name="velodyne_h_joint" type="fixed">
    <parent link="base_link" />
    <child link="velodyne_h" />
    <origin xyz="0.0 0.0 0.03" rpy="0.0 0.0 0.0" />
  </joint>

  <joint name="velodyne_v_joint" type="fixed">
    <parent link="velodyne_h" />
    <child link="velodyne_v" />
    <origin xyz="0.157595 -0.00592505 -0.103222" rpy="0.0515635 -1.31833 3.10316" />
  </joint>
  
  
</robot>